<svg id="Page_-_01_-_Cover_-_Dots_-_01" data-name="Page - 01 - Cover - Dots - 01" xmlns="http://www.w3.org/2000/svg" width="93.266" height="88.343" viewBox="0 0 93.266 88.343">
  <ellipse id="Ellipse_1" data-name="Ellipse 1" cx="12.015" cy="12.015" rx="12.015" ry="12.015" transform="translate(0 0)" fill="#f7f7f7"/>
  <ellipse id="Ellipse_2" data-name="Ellipse 2" cx="12.015" cy="12.015" rx="12.015" ry="12.015" transform="translate(69.235 0)" fill="#f7f7f7"/>
  <ellipse id="Ellipse_3" data-name="Ellipse 3" cx="12.015" cy="12.015" rx="12.015" ry="12.015" transform="translate(0 64.311)" fill="#f7f7f7"/>
  <ellipse id="Ellipse_4" data-name="Ellipse 4" cx="12.015" cy="12.015" rx="12.015" ry="12.015" transform="translate(69.235 64.311)" fill="#f7f7f7"/>
</svg>
