<svg id="Page_-_03_-_Past_Speakers_-_Dots" data-name="Page - 03 - Past Speakers - Dots" xmlns="http://www.w3.org/2000/svg" width="179.256" height="169.793" viewBox="0 0 179.256 169.793">
  <ellipse id="Ellipse_1" data-name="Ellipse 1" cx="23.094" cy="23.094" rx="23.094" ry="23.094" transform="translate(0 0)" fill="#fff"/>
  <ellipse id="Ellipse_2" data-name="Ellipse 2" cx="23.094" cy="23.094" rx="23.094" ry="23.094" transform="translate(133.069 0)" fill="#fff"/>
  <ellipse id="Ellipse_3" data-name="Ellipse 3" cx="23.094" cy="23.094" rx="23.094" ry="23.094" transform="translate(0 123.606)" fill="#fff"/>
  <ellipse id="Ellipse_4" data-name="Ellipse 4" cx="23.094" cy="23.094" rx="23.094" ry="23.094" transform="translate(133.069 123.606)" fill="#fff"/>
</svg>
