<svg xmlns="http://www.w3.org/2000/svg" width="604.897" height="2161.802" viewBox="0 0 604.897 2161.802">
  <g id="Page_-_01_-_Cover_-_Grey_-_Timeline_-_01" data-name="Page - 01 - Cover - Grey - Timeline - 01" transform="translate(-735.866)">
    <path id="Path_329" data-name="Path 329" d="M13161.764,9390v791.384l-554.9,554.9v435.743l384.8,361.559" transform="translate(-11846 -9390)" fill="none" stroke="#f7f7f7" stroke-width="50"/>
    <path id="Path_331" data-name="Path 331" d="M13161.764,9390v791.384l-554.9,554.9v435.743l384.8,361.559" transform="translate(-11846 -9390)" fill="none" stroke="#fff" stroke-width="10"/>
  </g>
</svg>
