<svg xmlns="http://www.w3.org/2000/svg" width="532.091" height="152.5" viewBox="0 0 532.091 152.5">
  <g id="Page_-_06_-_Closing_-_TES_Full_Logo" data-name="Page - 06 - Closing - TES Full Logo" transform="translate(-1518.559 -1804.342)">
    <g id="Group_460" data-name="Group 460" transform="translate(1857.292 1804.539)">
      <g id="Group_459" data-name="Group 459">
        <g id="Group_458" data-name="Group 458">
          <g id="Group_457" data-name="Group 457">
            <g id="Group_456" data-name="Group 456">
              <g id="Group_455" data-name="Group 455">
                <g id="Group_453" data-name="Group 453">
                  <path id="Path_357" data-name="Path 357" d="M1689.062,1805.813h5.888v5.044h4.473v4.626h-4.473v8.562c0,1.778.879,2.391,2.752,2.391.746,0,1.452-.039,1.835-.078v4.436a21.657,21.657,0,0,1-3.307.228c-5.218,0-7.3-1.6-7.3-5.866v-9.672h-3.116v-4.626h3.249Z" transform="translate(-1685.813 -1803.5)" fill="#fff"/>
                  <path id="Path_358" data-name="Path 358" d="M1695.892,1804.442h6.079v10.57h.305c.44-1.491,2.141-3.823,5.925-3.823,3.977,0,6.728,2.407,6.728,7.244v13.475h-6.1v-11.832c0-2.868-1.567-3.766-3.25-3.766-2.1,0-3.612,1.586-3.612,4.319v11.279h-6.079Z" transform="translate(-1678.888 -1804.442)" fill="#fff"/>
                  <path id="Path_359" data-name="Path 359" d="M1709.11,1819.921v-1.93c0-6.4,4.223-9.6,9.422-9.6,5.524,0,9.347,3.632,9.347,9.6v2.256h-12.844v.936a3.6,3.6,0,0,0,3.745,3.823c1.836,0,3.231-.881,3.383-2.161h5.581c-.133,2.772-2.694,6.728-8.945,6.728C1713.009,1829.573,1709.11,1826.305,1709.11,1819.921Zm12.938-3.135v-.115c0-2.313-1.356-3.86-3.458-3.86a3.529,3.529,0,0,0-3.555,3.86v.115Z" transform="translate(-1669.806 -1801.726)" fill="#fff"/>
                  <path id="Path_360" data-name="Path 360" d="M1686.153,1839.644v-1.932c0-6.4,4.224-9.594,9.424-9.594,5.524,0,9.347,3.632,9.347,9.594v2.256h-12.846v.936a3.6,3.6,0,0,0,3.747,3.823c1.834,0,3.229-.879,3.383-2.159h5.581c-.133,2.772-2.694,6.728-8.945,6.728C1690.054,1849.3,1686.153,1846.028,1686.153,1839.644Zm12.94-3.135v-.115c0-2.313-1.356-3.862-3.459-3.862a3.531,3.531,0,0,0-3.556,3.862v.115Z" transform="translate(-1685.58 -1788.174)" fill="#fff"/>
                  <path id="Path_361" data-name="Path 361" d="M1698.759,1837.618c0-5.792,3.669-9.5,9.441-9.5,5.468,0,8.736,3.288,8.793,7.742h-5.505a3.011,3.011,0,0,0-3.1-2.983c-2.237,0-3.517,1.873-3.517,4.759v1.911c0,3.135,1.3,4.989,3.517,4.989a2.823,2.823,0,0,0,3.153-2.866h5.5c-.078,4.528-3.173,7.626-8.869,7.626-5.886,0-9.422-3.651-9.422-9.709Z" transform="translate(-1676.918 -1788.174)" fill="#fff"/>
                  <path id="Path_362" data-name="Path 362" d="M1730.353,1837.751v1.739c0,6.288-3.747,9.806-9.672,9.806-5.964,0-9.691-3.5-9.691-9.787v-1.719c0-5.773,3.747-9.672,9.691-9.672C1726.606,1828.118,1730.353,1831.923,1730.353,1837.751Zm-13.208.019v1.874c0,2.483.937,5.026,3.536,5.026s3.5-2.5,3.5-5.026v-1.874c0-2.656-.994-5.046-3.5-5.046S1717.144,1835.133,1717.144,1837.77Z" transform="translate(-1668.514 -1788.174)" fill="#fff"/>
                  <path id="Path_363" data-name="Path 363" d="M1732.855,1828.118c4.7,0,8.1,2.1,8.1,6.154h-5.314c-.115-1.07-1.051-2.12-2.866-2.12-1.778,0-2.752.822-2.752,2.026,0,1.873,3.268,2.1,5.409,2.465,3.764.613,6.212,2.217,6.212,5.81,0,4.225-3.288,6.843-9.137,6.843-5.6,0-8.677-2.581-8.677-6.212h5.9c.135,1.241,1.166,2.159,3.059,2.159,2.083,0,2.962-.918,2.962-2.083,0-1.74-2.485-1.891-5.027-2.371-3.573-.707-6.46-2.178-6.46-6.155C1724.273,1829.933,1728.286,1828.118,1732.855,1828.118Z" transform="translate(-1659.688 -1788.174)" fill="#fff"/>
                  <path id="Path_364" data-name="Path 364" d="M1749.727,1847.745l-.478,1.262c-1.874,4.95-4.608,6.919-9.5,6.919a17.446,17.446,0,0,1-3.155-.268V1851.4a10.458,10.458,0,0,0,1.74.133c2.294,0,3.384-.746,3.614-2.522l.076-.365-6.785-20.3h6.728l3.631,15.386h.25l3.766-15.386h6.46C1753.931,1835.551,1749.784,1847.573,1749.727,1847.745Z" transform="translate(-1651.853 -1788.018)" fill="#fff"/>
                  <path id="Path_365" data-name="Path 365" d="M1757.4,1828.118c4.7,0,8.1,2.1,8.1,6.154h-5.314c-.113-1.07-1.049-2.12-2.866-2.12-1.776,0-2.752.822-2.752,2.026,0,1.873,3.268,2.1,5.409,2.465,3.766.613,6.212,2.217,6.212,5.81,0,4.225-3.288,6.843-9.137,6.843-5.6,0-8.677-2.581-8.677-6.212h5.906c.134,1.241,1.166,2.159,3.059,2.159,2.082,0,2.963-.918,2.963-2.083,0-1.74-2.485-1.891-5.028-2.371-3.573-.707-6.46-2.178-6.46-6.155C1748.816,1829.933,1752.83,1828.118,1757.4,1828.118Z" transform="translate(-1642.826 -1788.174)" fill="#fff"/>
                  <path id="Path_366" data-name="Path 366" d="M1763.12,1825.535h5.886v5.046h4.474v4.626h-4.474v8.562c0,1.778.88,2.389,2.753,2.389.746,0,1.453-.037,1.834-.076v4.434a21.4,21.4,0,0,1-3.3.229c-5.218,0-7.3-1.6-7.3-5.868v-9.671h-3.116v-4.626h3.249Z" transform="translate(-1634.927 -1789.949)" fill="#fff"/>
                  <path id="Path_367" data-name="Path 367" d="M1769.372,1839.644v-1.932c0-6.4,4.224-9.594,9.424-9.594,5.524,0,9.345,3.632,9.345,9.594v2.256H1775.3v.936a3.6,3.6,0,0,0,3.747,3.823c1.835,0,3.231-.879,3.382-2.159h5.581c-.133,2.772-2.694,6.728-8.945,6.728C1773.273,1849.3,1769.372,1846.028,1769.372,1839.644Zm12.94-3.135v-.115c0-2.313-1.356-3.862-3.459-3.862a3.531,3.531,0,0,0-3.556,3.862v.115Z" transform="translate(-1628.399 -1788.174)" fill="#fff"/>
                  <path id="Path_368" data-name="Path 368" d="M1782.5,1828.469h5.925v3.458h.287c.44-1.567,1.95-3.764,5.6-3.764,3.076,0,4.95,1.623,5.542,3.822h.248c.612-1.8,2.638-3.822,6.175-3.822,4.089,0,6.46,2.6,6.46,6.555v14.163h-6.079v-12.195c0-2.6-1.338-3.536-3.02-3.536-1.758,0-3.116,1.244-3.116,3.708v12.022h-5.811v-12.156c0-2.638-1.432-3.575-3.038-3.575-1.721,0-3.077,1.108-3.077,3.671v12.059h-6.1Z" transform="translate(-1619.38 -1788.142)" fill="#fff"/>
                  <path id="Path_369" data-name="Path 369" d="M1695.05,1847.841c4.7,0,8.105,2.1,8.105,6.155h-5.315c-.115-1.071-1.051-2.123-2.866-2.123-1.778,0-2.753.822-2.753,2.026,0,1.873,3.268,2.1,5.409,2.467,3.766.611,6.212,2.217,6.212,5.81,0,4.223-3.286,6.841-9.136,6.841-5.6,0-8.677-2.579-8.677-6.21h5.905c.135,1.242,1.166,2.159,3.059,2.159,2.084,0,2.963-.918,2.963-2.084,0-1.74-2.485-1.893-5.026-2.37-3.575-.707-6.462-2.178-6.462-6.155C1686.468,1849.656,1690.481,1847.841,1695.05,1847.841Z" transform="translate(-1685.665 -1774.622)" fill="#fff"/>
                  <path id="Path_370" data-name="Path 370" d="M1717.387,1868.481h-5.907v-3.422h-.305c-.535,1.606-2.389,3.727-5.964,3.727-4.071,0-6.747-2.236-6.747-7.148v-13.571h6.1v12c0,2.924,1.682,3.612,3.192,3.612a3.525,3.525,0,0,0,3.555-3.784v-11.832h6.079Z" transform="translate(-1677.12 -1774.467)" fill="#fff"/>
                  <path id="Path_371" data-name="Path 371" d="M1712.225,1848.191h5.925v3.46h.287c.44-1.567,1.95-3.766,5.6-3.766,3.077,0,4.95,1.625,5.542,3.823h.248c.612-1.8,2.638-3.823,6.174-3.823,4.09,0,6.46,2.6,6.46,6.556v14.163h-6.078v-12.195c0-2.6-1.338-3.536-3.02-3.536-1.758,0-3.114,1.242-3.114,3.708v12.022h-5.811v-12.157c0-2.637-1.434-3.573-3.04-3.573-1.719,0-3.077,1.108-3.077,3.669v12.061h-6.1Z" transform="translate(-1667.665 -1774.591)" fill="#fff"/>
                  <path id="Path_372" data-name="Path 372" d="M1732.637,1848.191h5.925v3.46h.287c.439-1.567,1.949-3.766,5.6-3.766,3.077,0,4.95,1.625,5.544,3.823h.248c.611-1.8,2.637-3.823,6.173-3.823,4.09,0,6.46,2.6,6.46,6.556v14.163H1756.8v-12.195c0-2.6-1.338-3.536-3.02-3.536-1.76,0-3.116,1.242-3.116,3.708v12.022h-5.81v-12.157c0-2.637-1.434-3.573-3.039-3.573-1.721,0-3.077,1.108-3.077,3.669v12.061h-6.1Z" transform="translate(-1653.64 -1774.591)" fill="#fff"/>
                  <path id="Path_373" data-name="Path 373" d="M1756.51,1842.777c2.178,0,3.631,1.242,3.631,3.1s-1.432,3.077-3.631,3.077c-2.16,0-3.632-1.223-3.632-3.077C1752.878,1844,1754.331,1842.777,1756.51,1842.777Zm-3.039,8.925h6.1v20.414h-6.1Z" transform="translate(-1639.732 -1778.102)" fill="#fff"/>
                  <path id="Path_374" data-name="Path 374" d="M1761.811,1845.258h5.886v5.046h4.473v4.624H1767.7v8.564c0,1.776.879,2.389,2.752,2.389.746,0,1.453-.039,1.836-.076v4.434a21.343,21.343,0,0,1-3.307.23c-5.218,0-7.3-1.606-7.3-5.868v-9.672h-3.115V1850.3h3.249Z" transform="translate(-1635.827 -1776.397)" fill="#fff"/>
                </g>
                <g id="Group_454" data-name="Group 454" transform="translate(0 120.891)">
                  <path id="Path_375" data-name="Path 375" d="M1695.669,1881.994a5.851,5.851,0,0,0-3.239.823,6.9,6.9,0,0,0-1.938,1.911v-8.589h-4.679v24.087h4.6v-2.252a6.7,6.7,0,0,0,1.736,1.846,7.166,7.166,0,0,0,9.087-1.846,11.429,11.429,0,0,0,1.967-6.89,10.037,10.037,0,0,0-2.019-6.544A6.591,6.591,0,0,0,1695.669,1881.994Zm1.642,13.4a3.248,3.248,0,0,1-2.816,1.483,3.564,3.564,0,0,1-3.135-1.524,6.65,6.65,0,0,1-1-3.794,8.673,8.673,0,0,1,.479-3.18,3.781,3.781,0,0,1,6.988.069,8.637,8.637,0,0,1,.471,3.111A6.625,6.625,0,0,1,1697.311,1895.39Z" transform="translate(-1685.813 -1876.069)" fill="#fff"/>
                  <path id="Path_376" data-name="Path 376" d="M1706.046,1892.989l-3.909-13.137h-5.173l6.544,18.605a3.1,3.1,0,0,1-.3,1.092,2.391,2.391,0,0,1-.766,1.156,2.5,2.5,0,0,1-1.044.376,7.257,7.257,0,0,1-1.319.069l-.57-.054v3.732c.491.024.867.049,1.115.049a9.6,9.6,0,0,0,1,.031c2.087,0,3.433-.417,4.126-1.227s1.621-2.922,2.814-6.286l6.124-17.542h-4.953Z" transform="translate(-1678.151 -1873.52)" fill="#fff"/>
                  <path id="Path_377" data-name="Path 377" d="M1721.674,1880h2.181v-3.9h-9.1v3.9h2.154v16.877h-2.615v3.924h10v-3.924h-2.614Z" transform="translate(-1666.245 -1876.098)" fill="#fff"/>
                  <path id="Path_378" data-name="Path 378" d="M1734.844,1887.106v4.1c0,4.211,1.776,6.942,8.9,6.942a32.6,32.6,0,0,0,6.29-.663v-3.659a32.448,32.448,0,0,1-5.858.4c-2.765,0-4.562-1.416-4.562-3.9v-2.36a3.827,3.827,0,0,1,3.217-4.02,4.607,4.607,0,0,1,2.434.121v2.569h4.768v-5.98a37.885,37.885,0,0,0-6.489-.714C1737.326,1879.946,1734.844,1882.661,1734.844,1887.106Z" transform="translate(-1652.124 -1873.454)" fill="#fff"/>
                  <path id="Path_379" data-name="Path 379" d="M1739.269,1886.64c0-4.874-2.23-6.694-6.286-6.694a10.4,10.4,0,0,0-4.768,1.3l-.432-.864h-6.29v3.913h2.613v9.935h-2.181v3.924h9.535v-3.924h-2.613v-9.935a9.051,9.051,0,0,1,3.094-.439c2.79,0,2.537,2.441,2.537,4.13v10.168h7.383v-3.924h-2.593Z" transform="translate(-1661.296 -1873.454)" fill="#fff"/>
                  <path id="Path_380" data-name="Path 380" d="M1764.842,1889.71c-2.511,1.372-4.564,1.745-4.564,3.9h10.828v-12.761C1771.106,1885.813,1768.064,1887.983,1764.842,1889.71Z" transform="translate(-1634.648 -1872.834)" fill="#fff"/>
                  <path id="Path_381" data-name="Path 381" d="M1776.144,1884.314c0-1.8-.636-4.317-3.7-4.317-3.17,0-4.665,3.1-3.678,6.5h-4.26a9.089,9.089,0,0,1,.508-5.846,8.193,8.193,0,0,1,7.381-4.555h-15.977l-9.743,13.652v5.829h10.175v-3.454h-5.915l8.3-12.128h.228v20.8h4.106c0-7.7,4.468-10.168,8.652-11.938C1774.546,1887.9,1776.144,1886.691,1776.144,1884.314Z" transform="translate(-1643.996 -1876.098)" fill="#fff"/>
                </g>
              </g>
            </g>
          </g>
        </g>
      </g>
    </g>
    <g id="Group_467" data-name="Group 467" transform="translate(1518.559 1804.343)">
      <g id="Group_465" data-name="Group 465">
        <g id="Group_464" data-name="Group 464">
          <g id="Group_461" data-name="Group 461" transform="translate(73.172)">
            <path id="Path_382" data-name="Path 382" d="M1589.621,1880.772l-18.62-18.62v-30.133l18.6-18.6h25.022l18.01,18.01-.04,17.178h-58.563V1860.9l16.846,16.846h50.746v-9.079h-46.985l-10.977-10.977h57.962v-30.108l-23.239-23.238h-32.543l-23.916,23.916v37.654l23.938,23.938h55.76v-9.079Z" transform="translate(-1561.922 -1804.343)" fill="#fff"/>
            <path id="Path_383" data-name="Path 383" d="M1624.7,1827.784l-16.267-16.267h-22.515l-16.825,16.824v12.311h55.614Zm-46,3.788,10.977-10.977h14.995l10.977,10.977Z" transform="translate(-1556.99 -1799.411)" fill="#fff"/>
          </g>
          <g id="Group_462" data-name="Group 462" transform="translate(160.878)">
            <path id="Path_384" data-name="Path 384" d="M1635.944,1804.343l-22.046,22.046v30.82h38.156v1.9l-9.747,9.747H1613.9v9h32.135l15.018-15.018v-14.625H1622.9v-18.1l16.775-16.775h33.378v-9Z" transform="translate(-1613.899 -1804.343)" fill="#fff"/>
            <path id="Path_385" data-name="Path 385" d="M1625.9,1826.47v13.854h38.156v18.867l-16.775,16.775H1613.9v9H1651l22.046-22.046v-31.591h-38.156V1830.2l9.747-9.747h28.409v-9h-32.136Z" transform="translate(-1613.899 -1799.455)" fill="#fff"/>
          </g>
          <g id="Group_463" data-name="Group 463">
            <path id="Path_386" data-name="Path 386" d="M1565.735,1876.737l-16.094-16.094v-49.192h-31.082v9h22.085v43.921l21.364,21.364h21.714v-9Z" transform="translate(-1518.559 -1799.455)" fill="#fff"/>
            <rect id="Rectangle_566" data-name="Rectangle 566" width="65.163" height="8.997" fill="#fff"/>
            <path id="Path_387" data-name="Path 387" d="M1556.819,1864.74l-9.066-9.066v-35.225h22.085v-9h-31.082v47.95l14.336,14.336h16.746v-9Z" transform="translate(-1504.675 -1799.455)" fill="#fff"/>
          </g>
        </g>
      </g>
      <g id="Group_466" data-name="Group 466" transform="translate(107.877 110.269)">
        <path id="Path_388" data-name="Path 388" d="M1604.6,1889.617a29.661,29.661,0,0,1-4.092,3.221q-2.283,1.509-4.632,2.987-2.41,1.476-4.725,3.073a30.116,30.116,0,0,0-4.186,3.458,17.109,17.109,0,0,0-3.076,4.138,12.588,12.588,0,0,0-1.4,5.115h29.179v-2.248h-26.135a7.755,7.755,0,0,1,2.253-4.64,29.7,29.7,0,0,1,4.821-4.018q2.822-1.921,6.026-3.873a53.534,53.534,0,0,0,5.963-4.2,22.05,22.05,0,0,0,4.566-4.993,11.3,11.3,0,0,0,1.807-6.355,10.671,10.671,0,0,0-1.077-4.934,10.106,10.106,0,0,0-2.919-3.49,12.673,12.673,0,0,0-4.313-2.069,19.843,19.843,0,0,0-5.265-.68q-6.535,0-9.991,3.517t-3.837,10.967h2.41a16.087,16.087,0,0,1,.729-4.936,11.23,11.23,0,0,1,2.188-3.962,10.209,10.209,0,0,1,3.68-2.659,13.841,13.841,0,0,1,9.293-.324,10.892,10.892,0,0,1,3.425,1.861,9.317,9.317,0,0,1,2.379,2.9,7.915,7.915,0,0,1,.887,3.753,9.776,9.776,0,0,1-1.078,4.64A14.549,14.549,0,0,1,1604.6,1889.617Z" transform="translate(-1582.489 -1869.401)" fill="#fff"/>
        <path id="Path_389" data-name="Path 389" d="M1603.737,1905.008a14.612,14.612,0,0,0,4.853,4.968,16.807,16.807,0,0,0,15.6,0,14.626,14.626,0,0,0,4.853-4.968,20.553,20.553,0,0,0,2.506-6.8,39.844,39.844,0,0,0,0-14.838,20.585,20.585,0,0,0-2.506-6.8,14.649,14.649,0,0,0-4.853-4.964,16.795,16.795,0,0,0-15.6,0,14.634,14.634,0,0,0-4.853,4.964,20.541,20.541,0,0,0-2.506,6.8,39.741,39.741,0,0,0,0,14.838A20.51,20.51,0,0,0,1603.737,1905.008Zm-.223-20.657a20.691,20.691,0,0,1,2.06-6.208,13.1,13.1,0,0,1,4.092-4.669,13.193,13.193,0,0,1,13.417,0,12.963,12.963,0,0,1,4.124,4.669,20.731,20.731,0,0,1,2.062,6.208,36.667,36.667,0,0,1,0,12.885,20.764,20.764,0,0,1-2.062,6.208,12.949,12.949,0,0,1-4.124,4.669,13.2,13.2,0,0,1-13.417,0,13.086,13.086,0,0,1-4.092-4.669,20.723,20.723,0,0,1-2.06-6.208,36.667,36.667,0,0,1,0-12.885Z" transform="translate(-1570.085 -1869.69)" fill="#fff"/>
        <path id="Path_390" data-name="Path 390" d="M1632.149,1874.217V1911.9h2.494V1869.69h-2.231a16.237,16.237,0,0,1-5.251,5.322,17.947,17.947,0,0,1-7.155,2.568v2.02a21.5,21.5,0,0,0,6.564-1.652A17.933,17.933,0,0,0,1632.149,1874.217Z" transform="translate(-1556.699 -1869.69)" fill="#fff"/>
        <path id="Path_391" data-name="Path 391" d="M1635.225,1893.424a13.566,13.566,0,0,0,4.663,2.9,16.852,16.852,0,0,0,6.026,1.035,15.245,15.245,0,0,0,4.6-.65,12.53,12.53,0,0,0,6.343-4.433,14.183,14.183,0,0,0,1.809-3.193l.125.118q0,1.833-.189,4.079a34.938,34.938,0,0,1-.7,4.553,24.307,24.307,0,0,1-1.458,4.492,14.169,14.169,0,0,1-2.474,3.871,11.584,11.584,0,0,1-3.712,2.718,11.98,11.98,0,0,1-5.169,1.035,10.917,10.917,0,0,1-7.327-2.452,10.783,10.783,0,0,1-3.648-6.355H1631.7a11.341,11.341,0,0,0,4.22,7.98,14.5,14.5,0,0,0,9.166,2.779,15.707,15.707,0,0,0,5.867-1.006,13.189,13.189,0,0,0,4.313-2.749,14.489,14.489,0,0,0,2.95-4.048,25.088,25.088,0,0,0,1.807-4.877,33.258,33.258,0,0,0,.921-5.261q.253-2.688.253-5.172a33.363,33.363,0,0,0-.665-7.094,19.557,19.557,0,0,0-1.809-5.113,12.761,12.761,0,0,0-2.663-3.458,12.214,12.214,0,0,0-3.2-2.1,14.467,14.467,0,0,0-3.49-1.036,21.608,21.608,0,0,0-3.458-.3,16.847,16.847,0,0,0-5.929,1.006,13.835,13.835,0,0,0-4.663,2.837,13.111,13.111,0,0,0-3.078,4.345,13.537,13.537,0,0,0-1.111,5.526,14.21,14.21,0,0,0,1.08,5.616A13.143,13.143,0,0,0,1635.225,1893.424Zm-.729-14.542a11.785,11.785,0,0,1,2.6-3.753,12.559,12.559,0,0,1,8.817-3.488,12.926,12.926,0,0,1,4.917.917,12.112,12.112,0,0,1,3.9,2.512,11.794,11.794,0,0,1,2.6,3.753,11.234,11.234,0,0,1,.952,4.581,11.933,11.933,0,0,1-.92,4.671,11.636,11.636,0,0,1-2.568,3.812,12.263,12.263,0,0,1-3.9,2.572,12.724,12.724,0,0,1-4.979.947,12.25,12.25,0,0,1-4.916-.977,12.657,12.657,0,0,1-3.9-2.6,12.021,12.021,0,0,1-2.6-3.812,11.437,11.437,0,0,1-.952-4.612A11.1,11.1,0,0,1,1634.5,1878.881Z" transform="translate(-1549.05 -1869.69)" fill="#fff"/>
      </g>
    </g>
    <line id="Line_1" data-name="Line 1" y2="152.303" transform="translate(1798.004 1804.538)" fill="none" stroke="#fff" stroke-miterlimit="10" stroke-width="1"/>
  </g>
</svg>
