<svg xmlns="http://www.w3.org/2000/svg" width="555.876" height="2105.692" viewBox="0 0 555.876 2105.692">
  <g id="Page_-_04_-_Past_Sponsers_-_Timeline" data-name="Page - 04 - Past Sponsers - Timeline" transform="translate(-1177.388 -5639.769)">
    <g id="Group_412" data-name="Group 412" transform="translate(-135 3077)">
      <path id="Path_330" data-name="Path 330" d="M13863.219,11952.77v1423.52l-423.553,425.3v256.875" transform="translate(-12102.278 -9390.001)" fill="none" stroke="#f7f7f7" stroke-width="50"/>
      <path id="Path_332" data-name="Path 332" d="M13863.219,11952.77v1423.52l-424.38,425.433V14046.9" transform="translate(-12102.278 -9390.001)" fill="none" stroke="#fff" stroke-width="10"/>
    </g>
    <g id="Group_411" data-name="Group 411" transform="translate(1035.324 -3221.676)">
      <g id="Path_312" data-name="Path 312" transform="translate(-734.916 8409.468)" fill="#fff">
        <path d="M 1358.57958984375 1982.275634765625 L 1281.197265625 1982.275634765625 L 1216.922119140625 1918 L 1216.922119140625 1840.61767578125 L 1281.197265625 1776.3427734375 L 1358.57958984375 1776.3427734375 L 1422.85546875 1840.617797851563 L 1422.85546875 1918 L 1358.57958984375 1982.275634765625 Z" stroke="none"/>
        <path d="M 1285.339477539063 1786.3427734375 L 1226.922119140625 1844.759887695313 L 1226.922119140625 1913.857788085938 L 1285.339477539063 1972.275634765625 L 1354.4375 1972.275634765625 L 1412.85546875 1913.857788085938 L 1412.85546875 1844.760009765625 L 1354.4375 1786.3427734375 L 1285.339477539063 1786.3427734375 M 1277.05517578125 1766.3427734375 L 1362.7216796875 1766.3427734375 L 1432.85546875 1836.4755859375 L 1432.85546875 1922.14208984375 L 1362.7216796875 1992.275634765625 L 1277.05517578125 1992.275634765625 L 1206.922119140625 1922.14208984375 L 1206.922119140625 1836.4755859375 L 1277.05517578125 1766.3427734375 Z" stroke="none" fill="#f7f7f7"/>
      </g>
      <g id="Path_328" data-name="Path 328" transform="translate(-700.798 8443.585)" fill="#fff">
        <path d="M 1311.526123046875 1914.040771484375 L 1260.016479492188 1914.040771484375 L 1216.922119140625 1870.946411132813 L 1216.922119140625 1819.436645507813 L 1260.016357421875 1776.343017578125 L 1311.526123046875 1776.343017578125 L 1354.6201171875 1819.436645507813 L 1354.6201171875 1870.946411132813 L 1311.526123046875 1914.040771484375 Z" stroke="none"/>
        <path d="M 1264.158447265625 1786.343017578125 L 1226.922119140625 1823.578857421875 L 1226.922119140625 1866.80419921875 L 1264.158569335938 1904.040771484375 L 1307.383911132813 1904.040771484375 L 1344.6201171875 1866.804321289063 L 1344.6201171875 1823.578735351563 L 1307.383911132813 1786.343017578125 L 1264.158447265625 1786.343017578125 M 1255.874267578125 1766.343017578125 L 1315.668212890625 1766.343017578125 L 1364.6201171875 1815.29443359375 L 1364.6201171875 1875.088500976563 L 1315.668212890625 1924.040771484375 L 1255.874267578125 1924.040771484375 L 1206.922119140625 1875.088500976563 L 1206.922119140625 1815.29443359375 L 1255.874267578125 1766.343017578125 Z" stroke="none" fill="#f7f7f7"/>
      </g>
    </g>
  </g>
</svg>
