<svg id="Page_-_01_-_Cover_-_TES_Logo" data-name="Page - 01 - Cover - TES Logo" xmlns="http://www.w3.org/2000/svg" width="84.854" height="33.273" viewBox="0 0 84.854 33.273">
  <g id="Group_94" data-name="Group 94">
    <g id="Group_93" data-name="Group 93">
      <g id="Group_90" data-name="Group 90" transform="translate(28.219)">
        <path id="Path_271" data-name="Path 271" d="M1572.6,1833.818l-7.181-7.181v-11.621l7.172-7.172h9.65l6.946,6.946-.015,6.625h-22.585v4.74l6.5,6.5h19.57v-3.5h-18.12l-4.233-4.233h22.353V1813.3l-8.962-8.962h-12.551l-9.223,9.223v14.521l9.232,9.232h21.5v-3.5Z" transform="translate(-1561.922 -1804.343)" fill="#fff"/>
        <path id="Path_272" data-name="Path 272" d="M1590.541,1817.79l-6.273-6.273h-8.683L1569.1,1818v4.748h21.448Zm-17.74,1.461,4.233-4.233h5.782l4.233,4.233Z" transform="translate(-1564.427 -1806.848)" fill="#fff"/>
      </g>
      <g id="Group_91" data-name="Group 91" transform="translate(62.043)">
        <path id="Path_273" data-name="Path 273" d="M1622.4,1804.343l-8.5,8.5v11.886h14.715v.733l-3.759,3.759H1613.9v3.47h12.393l5.792-5.792v-5.64h-14.715v-6.979l6.469-6.469h12.872v-3.47Z" transform="translate(-1613.899 -1804.343)" fill="#fff"/>
        <path id="Path_274" data-name="Path 274" d="M1618.525,1817.244v5.343h14.715v7.276l-6.469,6.469H1613.9v3.47h14.309l8.5-8.5v-12.183h-14.715v-.436l3.759-3.759h10.956v-3.47h-12.393Z" transform="translate(-1613.899 -1806.826)" fill="#fff"/>
      </g>
      <g id="Group_92" data-name="Group 92">
        <path id="Path_275" data-name="Path 275" d="M1536.753,1836.629l-6.207-6.206v-18.971h-11.987v3.47h8.517v16.938l8.239,8.239h8.374v-3.47Z" transform="translate(-1518.559 -1806.826)" fill="#fff"/>
        <rect id="Rectangle_50" data-name="Rectangle 50" width="25.13" height="3.47" fill="#fff"/>
        <path id="Path_276" data-name="Path 276" d="M1545.723,1832l-3.5-3.5v-13.585h8.517v-3.47h-11.987v18.492l5.529,5.529h6.458V1832Z" transform="translate(-1525.613 -1806.826)" fill="#fff"/>
      </g>
    </g>
  </g>
</svg>
