<svg xmlns="http://www.w3.org/2000/svg" width="189.063" height="189.061" viewBox="0 0 189.063 189.061">
  <g id="Page_-_05_-_Past_Editions_-_Dual_Octagon" data-name="Page - 05 - Past Editions - Dual Octagon" transform="translate(-472.006 -10175.811)">
    <g id="Path_312" data-name="Path 312" transform="translate(-734.916 8409.468)" fill="none">
      <path d="M1265.61,1766.343l-58.688,58.688v71.686l58.688,58.688H1337.3l58.688-58.688v-71.686l-58.688-58.688Z" stroke="none"/>
      <path d="M 1273.894165039063 1786.3427734375 L 1226.922119140625 1833.314819335938 L 1226.922119140625 1888.432250976563 L 1273.894165039063 1935.404541015625 L 1329.011962890625 1935.404541015625 L 1375.984375 1888.432250976563 L 1375.984375 1833.314819335938 L 1329.011962890625 1786.3427734375 L 1273.894165039063 1786.3427734375 M 1265.60986328125 1766.3427734375 L 1337.296142578125 1766.3427734375 L 1395.984375 1825.030517578125 L 1395.984375 1896.716552734375 L 1337.296142578125 1955.404541015625 L 1265.60986328125 1955.404541015625 L 1206.922119140625 1896.716552734375 L 1206.922119140625 1825.030517578125 L 1265.60986328125 1766.3427734375 Z" stroke="none" fill="#fff"/>
    </g>
    <g id="Path_328" data-name="Path 328" transform="translate(-706.366 8438.017)" fill="none">
      <path d="M1247.886,1766.343l-40.964,40.963v50.036l40.964,40.964h50.036l40.963-40.964v-50.036l-40.963-40.963Z" stroke="none"/>
      <path d="M 1256.169799804688 1786.343017578125 L 1226.922119140625 1815.590087890625 L 1226.922119140625 1849.057495117188 L 1256.169921875 1878.305297851563 L 1289.637084960938 1878.305297851563 L 1318.884643554688 1849.057495117188 L 1318.884643554688 1815.590087890625 L 1289.63720703125 1786.343017578125 L 1256.169799804688 1786.343017578125 M 1247.885620117188 1766.343017578125 L 1297.92138671875 1766.343017578125 L 1338.884643554688 1807.305786132813 L 1338.884643554688 1857.341796875 L 1297.92138671875 1898.305297851563 L 1247.885620117188 1898.305297851563 L 1206.922119140625 1857.341796875 L 1206.922119140625 1807.305786132813 L 1247.885620117188 1766.343017578125 Z" stroke="none" fill="#fff"/>
    </g>
  </g>
</svg>
