<svg xmlns="http://www.w3.org/2000/svg" width="823.886" height="1660.211" viewBox="0 0 823.886 1660.211">
  <g id="Page_-_02_-_The_age_Of_Startups_-_Grey_-_Timeline_-_01" data-name="Page - 02 - The age Of Startups - Grey - Timeline - 01" transform="translate(-1112.827 -2562.769)">
    <path id="Path_330" data-name="Path 330" d="M13606.941,11952.769v1012.1L12976.5,13595.3" transform="translate(-11846 -9390)" fill="none" stroke="#f7f7f7" stroke-width="50"/>
    <path id="Path_332" data-name="Path 332" d="M13606.941,11952.769v1012.1L12976.5,13595.3" transform="translate(-11846 -9390)" fill="none" stroke="#fff" stroke-width="10"/>
    <g id="Group_216" data-name="Group 216" transform="translate(-41.49 -41.49)">
      <path id="Path_287" data-name="Path 287" d="M1300.636,1766.342l-93.714,93.714v114.471l93.714,93.715h114.47l93.714-93.715V1860.057l-93.714-93.714Z" transform="translate(444.381 1705.96)" fill="#fff" stroke="#f7f7f7" stroke-width="50"/>
      <path id="Path_333" data-name="Path 333" d="M1300.636,1766.342l-93.714,93.714v114.471l93.714,93.715h114.47l93.714-93.715V1860.057l-93.714-93.714Z" transform="translate(444.382 1705.961)" fill="none" stroke="#fff" stroke-width="10"/>
    </g>
  </g>
</svg>
