<svg xmlns="http://www.w3.org/2000/svg" width="96.904" height="144.584" viewBox="0 0 96.904 144.584">
  <g id="Page_-_01_-_Cover_-_Zig-Zag_-_01" data-name="Page - 01 - Cover - Zig-Zag - 01" transform="translate(6655.612 -3921.295)">
    <path id="Path_136" data-name="Path 136" d="M-6635.849,3951.914l-18.47-18.923a5.571,5.571,0,0,1-.655-6.183h0c1.063-1.956,3.078-2.358,4.5-.9l14.622,14.98,19.125-19.594,19.124,19.594,19.125-19.594,18.472,18.923a5.571,5.571,0,0,1,.655,6.183h0c-1.062,1.956-3.079,2.358-4.5.9l-14.624-14.98-19.125,19.594-19.124-19.594Z" fill="#491cd9"/>
    <path id="Path_137" data-name="Path 137" d="M-6635.849,4172.569l-18.47-18.923a5.572,5.572,0,0,1-.655-6.183h0c1.063-1.956,3.078-2.358,4.5-.9l14.622,14.98,19.125-19.594,19.124,19.594,19.125-19.594,18.472,18.924a5.571,5.571,0,0,1,.655,6.183h0c-1.062,1.956-3.079,2.358-4.5.9l-14.624-14.98-19.125,19.594-19.124-19.594Z" transform="translate(0 -182.667)" fill="#491cd9"/>
    <path id="Path_138" data-name="Path 138" d="M-6635.849,4393.226l-18.47-18.924a5.571,5.571,0,0,1-.655-6.183h0c1.063-1.956,3.078-2.358,4.5-.9l14.622,14.98,19.125-19.594,19.124,19.594,19.125-19.594,18.472,18.923a5.572,5.572,0,0,1,.655,6.184h0c-1.062,1.955-3.079,2.358-4.5.9l-14.624-14.98-19.125,19.595-19.124-19.595Z" transform="translate(0 -365.334)" fill="#491cd9"/>
    <path id="Path_139" data-name="Path 139" d="M-6635.849,4613.881l-18.47-18.924a5.571,5.571,0,0,1-.655-6.183h0c1.063-1.955,3.078-2.357,4.5-.9l14.622,14.979,19.125-19.593,19.124,19.593,19.125-19.593,18.472,18.923a5.571,5.571,0,0,1,.655,6.183h0c-1.062,1.956-3.079,2.358-4.5.9l-14.624-14.981-19.125,19.594-19.124-19.594Z" transform="translate(0 -548.002)" fill="#491cd9"/>
  </g>
</svg>
